{"results":[{"popularity":327.332,"vote_count":431,"video":false,"poster_path":"\/vqzNJRH4YyquRiWxCCOH0aXggHI.jpg","id":290859,"adult":false,"backdrop_path":"\/rtf4vjjLZLalpOzDUi0Qd2GTUqq.jpg","original_language":"en","original_title":"Terminator: Dark Fate","genre_ids":[28,878],"title":"Terminator: Dark Fate","vote_average":6.5,"overview":"More than two decades have passed since Sarah Connor prevented Judgment Day, changed the future, and re-wrote the fate of the human race. Dani Ramos is living a simple life in Mexico City with her brother and father when a highly advanced and deadly new Terminator – a Rev-9 – travels back through time to hunt and kill her. Dani's survival depends on her joining forces with two warriors: Grace, an enhanced super-soldier from the future, and a battle-hardened Sarah Connor. As the Rev-9 ruthlessly destroys everything and everyone in its path on the hunt for Dani, the three are led to a T-800 from Sarah’s past that may be their last best hope.","release_date":"2019-11-01"},{"popularity":127.085,"vote_count":233,"video":false,"poster_path":"\/p69QzIBbN06aTYqRRiCOY1emNBh.jpg","id":501170,"adult":false,"backdrop_path":"\/1nm0sk8UUx9jHCTHuMKe2jkt4Pn.jpg","original_language":"en","original_title":"Doctor Sleep","genre_ids":[27],"title":"Doctor Sleep","vote_average":7,"overview":"A traumatized, alcoholic Dan Torrance meets Abra, a kid who also has the ability to \"shine.\" He tries to protect her from the True Knot, a cult whose goal is to feed off of people like them in order to remain immortal.","release_date":"2019-11-08"},{"popularity":111.18,"vote_count":19,"video":false,"poster_path":"\/qdfARIhgpgZOBh3vfNhWS4hmSo3.jpg","id":330457,"adult":false,"backdrop_path":"\/xJWPZIYOEFIjZpBL7SVBGnzRYXp.jpg","original_language":"en","original_title":"Frozen II","genre_ids":[12,16,35,14,10402,10751],"title":"Frozen II","vote_average":7,"overview":"Elsa, Anna, Kristoff and Olaf are going far in the forest to know the truth about an ancient mystery of their kingdom.","release_date":"2019-11-22"},{"popularity":93.622,"vote_count":188,"video":false,"poster_path":"\/g4z7mDmJmx23vsVg6XNWcnXb6gc.jpg","id":480105,"adult":false,"backdrop_path":"\/3uG3aOhEzFCjcQulsJQiAzLSrw8.jpg","original_language":"en","original_title":"47 Meters Down: Uncaged","genre_ids":[12,27,53],"title":"47 Meters Down: Uncaged","vote_average":5,"overview":"A group of backpackers diving in a ruined underwater city discover that they have stumbled into the territory of the ocean's deadliest shark species.","release_date":"2019-08-16"},{"popularity":81.869,"vote_count":316,"video":false,"poster_path":"\/pIcV8XXIIvJCbtPoxF9qHMKdRr2.jpg","id":338967,"adult":false,"backdrop_path":"\/jCCdt0e8Xe9ttvevD4S3TSMNdH.jpg","original_language":"en","original_title":"Zombieland: Double Tap","genre_ids":[28,35,27],"title":"Zombieland: Double Tap","vote_average":7.4,"overview":"Columbus, Tallahassee, Wichita, and Little Rock move to the American heartland as they face off against evolved zombies, fellow survivors, and the growing pains of the snarky makeshift family.","release_date":"2019-10-18"},{"popularity":65.321,"vote_count":25,"video":false,"poster_path":"\/xL1yNzwGSXfassYpt13hXADpz6R.jpg","id":522162,"adult":false,"backdrop_path":"\/1ZSjrBUHP2jm1QlQEyLGufL289q.jpg","original_language":"en","original_title":"Midway","genre_ids":[28,18,36,10752],"title":"Midway","vote_average":5.6,"overview":"The story of the soldiers and aviators who helped turn the tide of the Second World War during the iconic Battle of Midway in June 1942.","release_date":"2019-11-08"},{"popularity":60.391,"vote_count":12,"video":false,"poster_path":"\/jIbTPKCRWgmS2HaafKXeRaPHMGp.jpg","id":549053,"adult":false,"backdrop_path":"\/vQYwarUtaeyDYgwmcaTJYX1yix2.jpg","original_language":"en","original_title":"Last Christmas","genre_ids":[35,18,10749],"title":"Last Christmas","vote_average":6.6,"overview":"Kate is a young woman subscribed to bad decisions. Her last date with disaster? That of having accepted to work as Santa's elf for a department store. However, she meets Tom there. Her life takes a new turn. For Kate, it seems too good to be true.","release_date":"2019-11-08"},{"popularity":64.774,"vote_count":1084,"video":false,"poster_path":"\/7IiTTgloJzvGI1TAYymCfbfl3vT.jpg","id":496243,"adult":false,"backdrop_path":"\/TU9NIjwzjoKPwQHoHshkFcQUCG.jpg","original_language":"ko","original_title":"기생충","genre_ids":[35,18,53],"title":"Parasite","vote_average":8.5,"overview":"All unemployed, Ki-taek's family takes peculiar interest in the wealthy and glamorous Parks for their livelihood until they get entangled in an unexpected incident.","release_date":"2019-10-11"},{"popularity":36.11,"vote_count":764,"video":false,"poster_path":"\/9kOtMOUa5HrOiIG2Z9Anv7M8AbY.jpg","id":511987,"adult":false,"backdrop_path":"\/lm4xH0YwFbVvTgdtau1thNK5S6J.jpg","original_language":"en","original_title":"Crawl","genre_ids":[28,18,27,53],"title":"Crawl","vote_average":6.1,"overview":"When a huge hurricane hits her hometown in Florida, Haley ignores evacuation orders to look for her father. After finding him badly wounded, both are trapped by the flood. With virtually no time to escape the storm, they discover that rising water levels are the least of their problems.","release_date":"2019-07-12"},{"popularity":41.147,"vote_count":100,"video":false,"poster_path":"\/eXH2w0Ylh706Rwj6CHFm1FKRBXG.jpg","id":398978,"adult":false,"backdrop_path":"\/aZ1ZqJ4uO1RK5gU5jRsO4qG7rJo.jpg","original_language":"en","original_title":"The Irishman","genre_ids":[80,18],"title":"The Irishman","vote_average":8.8,"overview":"World War II veteran and mob hitman Frank \"The Irishman\" Sheeran recalls his possible involvement with the slaying of union leader Jimmy Hoffa.","release_date":"2019-11-01"},{"popularity":39.895,"vote_count":57,"video":false,"poster_path":"\/fjmMu9fpqMMF17mCyLhNfkagKB0.jpg","id":578189,"adult":false,"backdrop_path":"\/zBAoNL50oFRCAJvEEQEKD8M48pV.jpg","original_language":"en","original_title":"Black and Blue","genre_ids":[28,80,18],"title":"Black and Blue","vote_average":5,"overview":"Exposure follows a rookie Detroit African-American female cop who stumbles upon corrupt officers who are murdering a drug dealer, an incident captured by her body cam. They pursue her through the night in an attempt to destroy the footage, but to make matters worse, they've tipped off a criminal gang that she's responsible for the dealer's death.","release_date":"2019-10-25"},{"popularity":44.742,"vote_count":385,"video":false,"poster_path":"\/zBhv8rsLOfpFW2M5b6wW78Uoojs.jpg","id":540901,"adult":false,"backdrop_path":"\/jTab4cf4X1dJJVS4F8UOGuesvPd.jpg","original_language":"en","original_title":"Hustlers","genre_ids":[35,80,18],"title":"Hustlers","vote_average":6.1,"overview":"A crew of savvy former strip club employees band together to turn the tables on their Wall Street clients.","release_date":"2019-09-13"},{"popularity":28.029,"vote_count":0,"video":false,"poster_path":"\/taR7KaMNiR0JJ8TfPYgUTDUFD6y.jpg","id":511322,"adult":false,"backdrop_path":"\/Ab4WJA2FN8Ba0wVpGBXoWMUY4HN.jpg","original_language":"en","original_title":"The Good Liar","genre_ids":[18,9648],"title":"The Good Liar","vote_average":0,"overview":"An aging con artist cannot believe his luck when he meets a wealthy widow and marks her as his next target. But she hides a secret of her own.","release_date":"2019-11-15"},{"popularity":22.844,"vote_count":59,"video":false,"poster_path":"\/3nk9UoepYmv1G9oP18q6JJCeYwN.jpg","id":503919,"adult":false,"backdrop_path":"\/qlYhhBUseMUawwbvHCdPLXvBELv.jpg","original_language":"en","original_title":"The Lighthouse","genre_ids":[18,14,27],"title":"The Lighthouse","vote_average":8.2,"overview":"The hypnotic and hallucinatory tale of two lighthouse keepers on a remote and mysterious New England island in the 1890s.","release_date":"2019-10-18"},{"popularity":26.655,"vote_count":0,"video":false,"poster_path":"\/36YiDLw3IWkQyhfJnCjG2GCNgg9.jpg","id":458897,"adult":false,"backdrop_path":"\/j9oM3c4D1qiVLmweBQm78Tm2grW.jpg","original_language":"en","original_title":"Charlie's Angels","genre_ids":[28,12,35],"title":"Charlie's Angels","vote_average":0,"overview":"When a systems engineer blows the whistle on a dangerous technology, Charlie's Angels from across the globe are called into action, putting their lives on the line to protect society.","release_date":"2019-11-15"},{"popularity":26.025,"vote_count":5,"video":false,"poster_path":"\/5YHjyjd2N0ZXcnGuB8G1nIa6h9t.jpg","id":416153,"adult":false,"backdrop_path":"\/uTfdOozort4sp9kukWxEmdmRsqJ.jpg","original_language":"en","original_title":"Arctic Dogs","genre_ids":[16],"title":"Arctic Dogs","vote_average":5.1,"overview":"Animals band together to save the day when the evil Otto Von Walrus hatches a sinister scheme to accelerate global warming and melt the Arctic Circle.","release_date":"2019-11-01"},{"popularity":39.355,"vote_count":11,"video":false,"poster_path":"\/ftVSHLDbkVh0XycxGPqszEUyt3T.jpg","id":604165,"adult":false,"backdrop_path":"\/3yb93vHjVc9amUgLhAHRJGMNGpH.jpg","original_language":"ja","original_title":"劇場版 仮面ライダージオウ Over Quartzer!","genre_ids":[28,12,878],"title":"Kamen Rider Zi-O the Movie: Over Quartzer!","vote_average":6.8,"overview":"The Quartzers, calling themselves the Wardens of Time, appear after Sougo Tokiwa has collected all of the Heisei Era Ride Watches. A grand conspiracy behind the birth of the King of Time becomes ever clearer...","release_date":"2019-07-26"},{"popularity":23.796,"vote_count":12,"video":false,"poster_path":"\/4M6hxvrWol8R6NjNAFWtMx1Pr6v.jpg","id":506528,"adult":false,"backdrop_path":"\/f3Nm3sKGRrM2cVzOVPx6IevSmkS.jpg","original_language":"en","original_title":"Harriet","genre_ids":[18,36],"title":"Harriet","vote_average":8,"overview":"The story of Harriet Tubman, who helped free hundreds of slaves from the South after escaping from slavery herself in 1849.","release_date":"2019-11-01"},{"popularity":25.715,"vote_count":30,"video":false,"poster_path":"\/qCDPKUMX5xrxxQY8XhGVCKO3fks.jpg","id":599975,"adult":false,"backdrop_path":"\/hzL2P0tcU62A6JHPhprI8ZyBI73.jpg","original_language":"en","original_title":"Countdown","genre_ids":[27,53],"title":"Countdown","vote_average":7,"overview":"A young nurse downloads an app that tells her she only has three days to live. With time ticking away and a mysterious figure haunting her, she must find a way to save her life before time runs out.","release_date":"2019-10-25"},{"popularity":12.775,"vote_count":6,"video":false,"poster_path":"\/kZHnblqmTBUBgzYBIxWIz9txsEi.jpg","id":514921,"adult":false,"backdrop_path":"\/o9OlUAD4G6yZlhvjEJy7rfUHcg8.jpg","original_language":"en","original_title":"The Aeronauts","genre_ids":[12,18,10749],"title":"The Aeronauts","vote_average":6.8,"overview":"Pilot Amelia Wren and scientist James Glaisher find themselves in an epic fight for survival while attempting to make discoveries in a hot air balloon.","release_date":"2019-12-06"}],"page":1,"total_results":224,"dates":{"maximum":"2019-12-01","minimum":"2019-11-16"},"total_pages":12}